<svg width="64" height="64" viewBox="0 0 64 64" fill="none" xmlns="http://www.w3.org/2000/svg">
<g clip-path="url(#clip0_532_637)">
<rect width="32" height="32" transform="translate(16 16)" fill="#FAFAFA"/>
<path d="M19.2002 38C18.0978 38 17.2002 37.1032 17.2002 36V28C17.2002 26.8968 18.0978 26 19.2002 26H23.6002V38H19.2002Z" fill="#EDF8F0"/>
<path d="M23.1998 26.4001V37.6001H19.1998C18.3174 37.6001 17.5998 36.8825 17.5998 36.0001V28.0001C17.5998 27.1177 18.3174 26.4001 19.1998 26.4001H23.1998ZM23.9998 25.6001H19.1998C17.8742 25.6001 16.7998 26.6745 16.7998 28.0001V36.0001C16.7998 37.3257 17.8742 38.4001 19.1998 38.4001H23.9998V25.6001Z" fill="url(#paint0_linear_532_637)"/>
<path d="M23.5996 38.3273V25.8161L33.1996 17.6641V46.3449L23.5996 38.3273Z" fill="#EDF8F0"/>
<path d="M32.8002 18.5288V45.4896L24.0002 38.14V26.0008L32.8002 18.5288ZM33.6002 16.8L23.2002 25.6304V38.5144L33.6002 47.2V16.8Z" fill="url(#paint1_linear_532_637)"/>
<path d="M37.6084 44.5761C42.938 42.8793 46.8004 37.8921 46.8004 32.0001C46.8004 26.1081 42.938 21.1209 37.6084 19.4241" stroke="url(#paint2_linear_532_637)" stroke-miterlimit="10" stroke-linecap="round"/>
<path d="M36.4727 41.0153C40.1607 39.6761 42.7999 36.1505 42.7999 32.0001C42.7999 27.8497 40.1607 24.3241 36.4727 22.9849" stroke="url(#paint3_linear_532_637)" stroke-miterlimit="10" stroke-linecap="round"/>
<path d="M35.1797 36.9545C37.2789 36.2857 38.8005 34.3209 38.8005 32.0001C38.8005 29.6793 37.2789 27.7145 35.1797 27.0457" stroke="url(#paint4_linear_532_637)" stroke-miterlimit="10" stroke-linecap="round"/>
</g>
<defs>
<linearGradient id="paint0_linear_532_637" x1="16.5322" y1="26.7464" x2="24.8019" y2="27.6232" gradientUnits="userSpaceOnUse">
<stop stop-color="#01C981"/>
<stop offset="1" stop-color="#00D7A2"/>
</linearGradient>
<linearGradient id="paint1_linear_532_637" x1="22.8137" y1="19.5224" x2="34.8431" y2="20.2982" gradientUnits="userSpaceOnUse">
<stop stop-color="#01C981"/>
<stop offset="1" stop-color="#00D7A2"/>
</linearGradient>
<linearGradient id="paint2_linear_532_637" x1="37.2668" y1="21.6765" x2="47.8927" y2="22.4085" gradientUnits="userSpaceOnUse">
<stop stop-color="#01C981"/>
<stop offset="1" stop-color="#00D7A2"/>
</linearGradient>
<linearGradient id="paint3_linear_532_637" x1="36.2375" y1="24.5995" x2="43.5544" y2="25.0835" gradientUnits="userSpaceOnUse">
<stop stop-color="#01C981"/>
<stop offset="1" stop-color="#00D7A2"/>
</linearGradient>
<linearGradient id="paint4_linear_532_637" x1="35.0451" y1="27.933" x2="39.2308" y2="28.2213" gradientUnits="userSpaceOnUse">
<stop stop-color="#01C981"/>
<stop offset="1" stop-color="#00D7A2"/>
</linearGradient>
<clipPath id="clip0_532_637">
<rect width="32" height="32" fill="white" transform="translate(16 16)"/>
</clipPath>
</defs>
</svg>
