<svg width="561" height="82" viewBox="0 0 561 82" fill="none" xmlns="http://www.w3.org/2000/svg">
<path d="M561 82C561 36.7127 524.287 0 479 0H-251C-273.644 0 -292 18.3563 -292 41C-292 63.6437 -273.644 82 -251 82H561Z" fill="url(#paint0_linear_534_871)"/>
<defs>
<linearGradient id="paint0_linear_534_871" x1="592.699" y1="7.34328" x2="388.206" y2="408.321" gradientUnits="userSpaceOnUse">
<stop stop-color="#01C981"/>
<stop offset="1" stop-color="#00D7A2"/>
</linearGradient>
</defs>
</svg>
