<svg width="29" height="28" viewBox="0 0 29 28" fill="none" xmlns="http://www.w3.org/2000/svg">
<path d="M14.0003 0.666626C6.64833 0.666626 0.666992 6.64796 0.666992 14C0.666992 21.352 6.64833 27.3333 14.0003 27.3333C21.3523 27.3333 27.3337 21.352 27.3337 14C27.3337 12.4986 27.0723 11.0589 26.6123 9.7109L24.4535 11.8698C24.5935 12.5578 24.667 13.2706 24.667 14C24.667 19.8813 19.8817 24.6666 14.0003 24.6666C8.11899 24.6666 3.33366 19.8813 3.33366 14C3.33366 8.11863 8.11899 3.33329 14.0003 3.33329C16.1777 3.33329 18.2029 3.99181 19.8936 5.11715L21.8024 3.20829C19.6051 1.61629 16.9137 0.666626 14.0003 0.666626ZM26.391 2.39058L12.667 16.1145L8.27637 11.7239L6.39095 13.6093L12.667 19.8854L28.2764 4.276L26.391 2.39058Z" fill="url(#paint0_linear_528_268)"/>
<defs>
<linearGradient id="paint0_linear_528_268" x1="-0.359032" y1="3.05468" x2="30.5322" y2="9.08344" gradientUnits="userSpaceOnUse">
<stop stop-color="#01C981"/>
<stop offset="1" stop-color="#00D7A2"/>
</linearGradient>
</defs>
</svg>
