<svg width="33" height="32" viewBox="0 0 33 32" fill="none" xmlns="http://www.w3.org/2000/svg">
<path d="M26.333 10.8H29.533V30.8H26.333V10.8Z" fill="#EDF8F0"/>
<path d="M29.1331 11.1999V30.3999H26.7331V11.1999H29.1331ZM29.9331 10.3999H25.9331V31.1999H29.9331V10.3999Z" fill="url(#paint0_linear_15_893)"/>
<path d="M16.7329 14.8H19.9329V30.8H16.7329V14.8Z" fill="#EDF8F0"/>
<path d="M19.533 15.1999V30.3999H17.133V15.1999H19.533ZM20.333 14.3999H16.333V31.1999H20.333V14.3999Z" fill="url(#paint1_linear_15_893)"/>
<path d="M11.9331 20.3999H15.1331V30.7999H11.9331V20.3999Z" fill="#EDF8F0"/>
<path d="M14.7332 20.8V30.4H12.3332V20.8H14.7332ZM15.5332 20H11.5332V31.2H15.5332V20Z" fill="url(#paint2_linear_15_893)"/>
<path d="M7.13281 18H10.3328V30.8H7.13281V18Z" fill="#EDF8F0"/>
<path d="M9.93291 18.4001V30.4001H7.53291V18.4001H9.93291ZM10.7329 17.6001H6.73291V31.2001H10.7329V17.6001Z" fill="url(#paint3_linear_15_893)"/>
<path d="M2.33301 22H5.53301V30.8H2.33301V22Z" fill="#EDF8F0"/>
<path d="M5.13311 22.4001V30.4001H2.73311V22.4001H5.13311ZM5.93311 21.6001H1.93311V31.2001H5.93311V21.6001Z" fill="url(#paint4_linear_15_893)"/>
<path d="M21.5327 17.2H24.7327V30.8H21.5327V17.2Z" fill="#EDF8F0"/>
<path d="M24.3328 17.6V30.4H21.9328V17.6H24.3328ZM25.1328 16.8H21.1328V31.2H25.1328V16.8Z" fill="url(#paint5_linear_15_893)"/>
<path d="M28.3328 3.19995L22.7328 7.19995L19.5328 5.59995L13.1328 10.4L9.93281 8.79995L3.13281 14" stroke="url(#paint6_linear_15_893)" stroke-miterlimit="10" stroke-linecap="round"/>
<path d="M25.1328 1.6001H29.9328V6.4001L25.1328 1.6001Z" fill="url(#paint7_linear_15_893)"/>
<defs>
<linearGradient id="paint0_linear_15_893" x1="25.7845" y1="12.2626" x2="30.4243" y2="12.4308" gradientUnits="userSpaceOnUse">
<stop stop-color="#01C981"/>
<stop offset="1" stop-color="#00D7A2"/>
</linearGradient>
<linearGradient id="paint1_linear_15_893" x1="16.1844" y1="15.9044" x2="20.8209" y2="16.1125" gradientUnits="userSpaceOnUse">
<stop stop-color="#01C981"/>
<stop offset="1" stop-color="#00D7A2"/>
</linearGradient>
<linearGradient id="paint2_linear_15_893" x1="11.3846" y1="21.003" x2="16.0095" y2="21.3143" gradientUnits="userSpaceOnUse">
<stop stop-color="#01C981"/>
<stop offset="1" stop-color="#00D7A2"/>
</linearGradient>
<linearGradient id="paint3_linear_15_893" x1="6.58426" y1="18.818" x2="11.216" y2="19.0748" gradientUnits="userSpaceOnUse">
<stop stop-color="#01C981"/>
<stop offset="1" stop-color="#00D7A2"/>
</linearGradient>
<linearGradient id="paint4_linear_15_893" x1="1.78446" y1="22.4598" x2="6.4019" y2="22.8225" gradientUnits="userSpaceOnUse">
<stop stop-color="#01C981"/>
<stop offset="1" stop-color="#00D7A2"/>
</linearGradient>
<linearGradient id="paint5_linear_15_893" x1="20.9842" y1="18.0896" x2="25.6174" y2="18.3322" gradientUnits="userSpaceOnUse">
<stop stop-color="#01C981"/>
<stop offset="1" stop-color="#00D7A2"/>
</linearGradient>
<linearGradient id="paint6_linear_15_893" x1="2.19633" y1="4.16711" x2="26.7214" y2="14.9539" gradientUnits="userSpaceOnUse">
<stop stop-color="#01C981"/>
<stop offset="1" stop-color="#00D7A2"/>
</linearGradient>
<linearGradient id="paint7_linear_15_893" x1="24.9544" y1="2.02995" x2="30.3383" y2="3.04478" gradientUnits="userSpaceOnUse">
<stop stop-color="#01C981"/>
<stop offset="1" stop-color="#00D7A2"/>
</linearGradient>
</defs>
</svg>
